…
 5 2     1         9
 6 2     3         8
 7 2     5        20
 8 2     6         4
 9 3     5         3
10 3     6         1
11 5     3         7
12 5     6         3
13 6     3         1
14 6     5         2
> 
> comb3 <- keywordComb(as.character(c(1,1,2,2,1,2,1,2,1,5,5,5,3,6,5,3,5)), 
                       m = 3, remove_dup = F, self_conn = T)
> comb3
# A tibble: 52 x 4
   word1 word2 word3 value
   <chr> <chr> <chr> <dbl>
 1 1     1     1        10
 2 1     1     2        11
 3 1     1     3        20
 4 1     1     5        50
 5 1     1     6        10
 6 1     2     1        22
 7 1     2     2        13
 8 1     2     3        22
 9 1     2     5        55
10 1     2     6        11
# ... with 42 more rows
```
…
